Cash Grab Arena – Playtest Data Analysis
…
Top Class-and-Trinket Combos by Lives Played

## # A tibble: 186 × 3
## # Groups:   Class [17]
##    Class        Trinket         LivesPlayed
##    <chr>        <chr>                 <int>
##  1 Stargazer    Accelerator              14
##  2 Griefer      Smoke Screen             12
##  3 Alchemist    Echo Bolt                10
##  4 Cloudbreaker Lava Cake                10
##  5 Dancer       Lava Cake                10
##  6 Frost Knight Echo Bolt                10
##  7 Frost Knight Lava Cake                10
##  8 Battlesmith  Bandage                   9
##  9 Chronomancer Vigor Flask               9
## 10 Griefer      Hedge Seed                9
## 11 Ranger       Risk-it-Biscuit           9
## 12 Skirmisher   Smoke Screen              9
## 13 Spectre      Nox Bomb                  9
## 14 Stargazer    Echo Bolt                 9
## 15 Titan        Spring Plume              9
## 16 Titan        Vigor Flask               9
## 17 Alchemist    Risk-it-Biscuit           8
## 18 Artillery    Flame Trap                8
## 19 Battlesmith  Accelerator               8
## 20 Champion     Lava Cake                 8
## # ℹ 166 more rows
…
